<svg width="20" height="25" viewBox="0 0 27 29" fill="none" xmlns="http://www.w3.org/2000/svg">
    <g clip-path="url(#clip0_59_9)">
        <g clip-path="url(#clip1_59_9)">
            <path d="M2.646 2.53758L23.901 25.3108" stroke="black" stroke-width="3.50224" stroke-linecap="round"
                stroke-linejoin="round" />
            <path
                d="M7.6545 7.91504C4.41526 10.2751 2.646 13.9242 2.646 13.9242C2.646 13.9242 6.51055 21.8949 13.2735 21.8949C15.4525 21.8949 17.3305 21.0675 18.8754 19.9459M12.2108 6.01987C12.5566 5.9765 12.9109 5.95358 13.2735 5.95358C20.0364 5.95358 23.901 13.9242 23.901 13.9242C23.901 13.9242 23.1658 15.4406 21.7755 17.1506"
                stroke="black" stroke-width="3.50224" stroke-linecap="round" stroke-linejoin="round" />
            <path
                d="M15.3991 16.4705C14.835 17.0114 14.0902 17.3403 13.2736 17.3403C11.5127 17.3403 10.0853 15.811 10.0853 13.9243C10.0853 12.9864 10.4381 12.1369 11.0092 11.5196"
                stroke="black" stroke-width="3.50224" stroke-linecap="round" stroke-linejoin="round" />
        </g>
    </g>
    <defs>
        <clipPath id="clip0_59_9">
            <rect width="26.0266" height="28.1087" fill="white" />
        </clipPath>
        <clipPath id="clip1_59_9">
            <rect width="25.5061" height="27.3279" fill="white" transform="translate(0.520508 0.260262)" />
        </clipPath>
    </defs>
</svg>